Homework 8
…
We see from the output that there are no missing values in any of the columns.

Steps 2 through 4. We combine steps 2 through 4. First, we check the data type for each column. We first print the tibble to view this.

rentals

# A tibble: 8,760 × 14
   Date       `Rented Bike Count`  Hour `Temperature(°C)` `Humidity(%)`
   <chr>                    <dbl> <dbl>             <dbl>         <dbl>
 1 01/12/2017                 254     0              -5.2            37
 2 01/12/2017                 204     1              -5.5            38
 3 01/12/2017                 173     2              -6              39
 4 01/12/2017                 107     3              -6.2            40
 5 01/12/2017                  78     4              -6              36
 6 01/12/2017                 100     5              -6.4            37
 7 01/12/2017                 181     6              -6.6            35
 8 01/12/2017                 460     7              -7.4            38
 9 01/12/2017                 930     8              -7.6            37
10 01/12/2017                 490     9              -6.5            27
# ℹ 8,750 more rows
# ℹ 9 more variables: `Wind speed (m/s)` <dbl>, `Visibility (10m)` <dbl>,
#   `Dew point temperature(°C)` <dbl>, `Solar Radiation (MJ/m2)` <dbl>,
#   `Rainfall(mm)` <dbl>, `Snowfall (cm)` <dbl>, Seasons <chr>, Holiday <chr>,
#   `Functioning Day` <chr>
…
recipe(bike_count_daily ~., data = rentals_condensed) |>
  step_date(date, features = 'dow') |>
  step_mutate(weekend = factor(ifelse(
    date_dow %in% c('Sat', 'Sun'),
    'Yes',
    'No'
  ))) |>
  step_rm(date_dow) |>
  update_role(date, new_role = 'Date') |>
  step_normalize(all_numeric(), -all_outcomes()) |>
  step_dummy(holiday, seasons, weekend) |>
  prep(training = rentals_condensed) |>
  bake(rentals_condensed) 

# A tibble: 353 × 15
   date       rainfall_daily snowfall_daily temp_mean humidity_mean
   <date>              <dbl>          <dbl>     <dbl>         <dbl>
 1 2017-12-01        -0.303          -0.212    -1.30         -0.827
 2 2017-12-02        -0.303          -0.212    -0.977         0.255
 3 2017-12-03         0.0360         -0.212    -0.674         1.57 
 4 2017-12-04        -0.295          -0.212    -1.12         -0.381
 5 2017-12-05        -0.303          -0.212    -1.47         -1.46 
 6 2017-12-06        -0.193           0.765    -1.09          0.849
 7 2017-12-07        -0.303           0.970    -0.997         0.631
 8 2017-12-08        -0.303          -0.212    -1.42         -1.10 
 9 2017-12-09        -0.303          -0.212    -1.16         -0.818
10 2017-12-10         0.0445          3.48     -0.989         0.776
# ℹ 343 more rows
# ℹ 10 more variables: wind_speed_mean <dbl>, visibility_mean <dbl>,
#   dew_point_temp_mean <dbl>, solar_radiation_mean <dbl>,
#   bike_count_daily <dbl>, holiday_No.Holiday <dbl>, seasons_Spring <dbl>,
#   seasons_Summer <dbl>, seasons_Winter <dbl>, weekend_Yes <dbl>
…
